CBC_number_00=0
CBC_number_01=0
CBC_number_02=0
CBC_number_03=0
CBC_number_04=0
CBC_number_05=0
CBC_number_06=0
CBC_number_07=0
CBC_number_08=0
CBC_number_09=0
FE_ID_00=0
FE_ID_01=1
FE_ID_02=255
FE_ID_03=255
FE_ID_04=0
FE_ID_05=0
FE_ID_06=0
FE_ID_07=0
FE_ID_08=0
FE_ID_09=0
I2C_register_00=0
I2C_register_01=0
I2C_register_02=0
I2C_register_03=0
I2C_register_04=0
I2C_register_05=0
I2C_register_06=0
I2C_register_07=0
I2C_register_08=0
I2C_register_09=0
data_type_00=5
data_type_01=5
data_type_02=3
data_type_03=128
data_type_04=1
data_type_05=1
data_type_06=1
data_type_07=1
data_type_08=1
data_type_09=1
enabled_00=1
enabled_01=1
enabled_02=1
enabled_03=1
enabled_04=0
enabled_05=0
enabled_06=0
enabled_07=0
enabled_08=0
enabled_09=0
page_number_00=0
page_number_01=0
page_number_02=0
page_number_03=0
page_number_04=0
page_number_05=0
page_number_06=0
page_number_07=0
page_number_08=0
page_number_09=0
value_00=120
value_01=300
value_02=4
value_03=13
value_04=0
value_05=0
value_06=0
value_07=0
value_08=0
value_09=0
name_00='FrontEndControl'
name_01=''
name_02=''
name_03=''
name_04='FrontEndControl'
name_05='FrontEndControl'
name_06='FrontEndControl'
name_07='FrontEndControl'
name_08='FrontEndControl'
name_09='FrontEndControl'
