#Name	Byte	BitBegin	nbBits	Format  Repeat	Size	Since
Version    	8^7	4	4	%d
Mode    	8^7	2	2	%:1:Full debug, 2:CBC error, 0:Summary error
Operating mode 	8^7	0	2	%:2:Virgin raw, 1:Zero suppressed
Condition data	9^7	7	1	%:1:Present,0:Absent
Data type	9^7	6	1	%:1:Real,0:Fake
FE status	15^7	0	16	%d
CBC status	18^7	0	8	0x%02X	2	-8	CBC status
nb CBC    	17^7	0	16	%d
FE header	25^7	0	16	0x%04X
Reversed Data	26^7	0	-254	0x%X	2	256	Reversed Data    
Cond.1 FE Id	88	0	8	0x%02X
nb Condition	89	0	32	%X
Stub    	93	0	8	0x%X
Cond.2 FE Id	96	0	8	0x%02X
Cond.1 value	97	0	32	%d
Cond.1 type	101	0	8	%d
Cond.1 register	102	0	8	0x%02X
Cond.1 address	103	0	8	0x%02X
Cond.3 FE Id	104	0	8	0x%02X
Cond.2 value	105	0	32	%d
Cond.2 type	109	0	8	%d
Cond.2 register	110	0	8	0x%02X
Cond.2 address	111	0	8	0x%02X
Cond.3 value	113	0	32	%d
Cond.3 type	117	0	8	%d
Cond.3 register	118	0	8	0x%02X
Cond.3 address	119	0	8	0x%02X
