#Tracker phase-2 format for 1 FE with 8 CBC on each, condition data, full debug mode, Virgin raw
#Name    	Byte	bitBeg	nbBits	Format	Repeat	Size	Since
Version	8^7	4	4	%d
Mode    	8^7	2	2	%:1:Full debug, 2:CBC error, 0:Summary error
Operating mode 	8^7	0	2	%:2:Virgin raw, 1:Zero suppressed
Condition data	9^7	7	1	%:1:Present,0:Absent
Data type	9^7	6	1	%:1:Real,0:Fake
nb CBC    	14^7	0	16	%d
FE status	23^7	0	64	0x%016X
CBC status	18^7	0	8	0x%02X	8	8	CBC status
FE1 header	32^7	0	16	0x%02X
Stub    	303^7	0	64	0x%X
nb Condition	311^7	0	64	%d
Cond.FE Id	312^7	0	8	0x%02X
Cond.CBC	313^7	4	4	0x%02X
Cond.Page	313^7	0	4	0x%02X
Cond.register	314^7	0	8	0x%02X
Cond.type	315^7	0	8	%:1: Front-end configuration parameter,2: Trigger word,3: Trigger phase,4: Angle of the rotation station,5: High Voltage settings,6: Error bits,7: CBC status, 8: Other value
Cond.value	319^7	0	32	%X -------------------------------	*	2624	Version
